1075	a	better	understanding	of
1187	a	big	part	of
2543	a	bit	of	a
1852	a	certain	amount	of
1083	a	change	in	the
1042	a	closer	look	at
1681	a	copy	of	the
2099	a	couple	of	days
1507	a	couple	of	hours
1043	a	couple	of	minutes
1308	a	couple	of	months
1727	a	couple	of	times
2215	a	couple	of	weeks
3342	a	couple	of	years
1509	a	cup	of	coffee
1099	a	day	or	two
1055	a	deep	breath	and
1724	a	different	kind	of
1665	a	few	days	later
1393	a	few	minutes	later
1506	a	few	months	ago
2369	a	few	of	the
1601	a	few	weeks	ago
4864	a	few	years	ago
1043	a	few	years	later
1226	a	friend	of	mine
1401	a	good	deal	of
1389	a	good	idea	to
1006	a	good	place	to
1028	a	good	way	to
6434	a	great	deal	of
1011	a	group	of	people
1701	a	growing	number	of
1323	a	hell	of	a
1058	a	high	level	of
1209	a	hole	in	the
2462	a	large	number	of
1042	a	letter	to	the
1961	a	little	bit	about
3036	a	little	bit	more
6524	a	little	bit	of
1561	a	little	more	than
1004	a	long	period	of
2318	a	long	time	ago
1484	a	long	time	to
1112	a	long	way	from
1311	a	long	way	to
3149	a	look	at	the
1037	a	look	at	this
1226	a	lot	more	than
1189	a	lot	of	different
1662	a	lot	of	fun
1196	a	lot	of	good
1631	a	lot	of	it
4716	a	lot	of	money
1962	a	lot	of	other
18237	a	lot	of	people
1074	a	lot	of	that
6880	a	lot	of	the
2177	a	lot	of	them
1837	a	lot	of	these
4143	a	lot	of	things
4112	a	lot	of	time
1651	a	lot	of	times
1103	a	lot	of	us
1510	a	lot	of	work
1126	a	lot	to	do
1203	a	majority	of	the
1006	a	man	with	a
3261	a	matter	of	fact
1137	a	matter	of	time
9077	a	member	of	the
1310	a	new	generation	of
1196	a	new	kind	of
1357	a	number	of	other
1140	a	number	of	years
4111	a	part	of	the
1077	a	period	of	time
1204	a	piece	of	paper
1196	a	portion	of	the
1205	a	quarter	of	a
1045	a	quarter	of	the
3575	a	result	of	the
1040	a	sense	of	the
1209	a	small	group	of
1199	a	small	number	of
1239	a	spokesman	for	the
1931	a	third	of	the
1642	a	time	when	the
1044	a	tremendous	amount	of
1260	a	very	long	time
1139	a	way	of	life
1019	a	way	to	get
1936	a	whole	lot	of
3767	a	wide	range	of
2365	a	wide	variety	of
2049	a	year	and	a
1052	a	year	or	two
1144	about	some	of	the
1678	about	the	fact	that
1002	about	the	nature	of
1025	about	the	same	time
1302	about	the	size	of
1267	across	the	street	from
5651	all	of	a	sudden
1353	all	of	us	here
2383	all	over	the	country
1894	all	over	the	place
3748	all	over	the	world
1166	all	the	way	down
3692	all	the	way	to
1055	all	the	way	up
1081	all	you	have	to
1631	am	i	going	to
1953	an	awful	lot	of
1226	an	end	to	the
1066	an	hour	and	a
1404	an	important	part	of
1450	an	important	role	in
1151	an	increase	in	the
1633	an	integral	part	of
1432	and	a	couple	of
1954	and	a	half	years
5839	and	a	lot	of
1328	and	a	number	of
1228	and	all	of	a
1233	and	all	of	the
1277	and	as	a	result
2032	and	at	the	same
1209	and	by	the	time
1296	and	by	the	way
1129	and	for	the	first
2085	and	he	did	n't
1082	and	he	does	n't
2449	and	i	ca	n't
1774	and	i	could	n't
4063	and	i	did	n't
13070	and	i	do	n't
1446	and	i	had	to
1212	and	i	have	a
1596	and	i	have	to
1238	and	i	know	that
1861	and	i	think	he
1086	and	i	think	i
4815	and	i	think	it
10898	and	i	think	that
3534	and	i	think	the
1006	and	i	think	there
1395	and	i	think	they
2599	and	i	think	we
1185	and	i	think	you
3328	and	i	want	to
1606	and	i	wanted	to
1285	and	if	you	do
1080	and	in	some	cases
1082	and	it	did	n't
1738	and	it	does	n't
1102	and	it	is	a
2322	and	it	was	a
1888	and	it	was	n't
1282	and	it	would	be
1821	and	most	of	the
5524	and	one	of	the
2303	and	out	of	the
1189	and	pepper	to	taste
1236	and	she	did	n't
2942	and	some	of	the
1590	and	that	is	the
1465	and	that	was	the
1137	and	the	ability	to
1023	and	the	author	of
2793	and	the	fact	that
1552	and	the	number	of
3465	and	the	rest	of
4811	and	the	united	states
1258	and	the	use	of
1661	and	there	is	a
1688	and	there	is	no
2599	and	there	was	a
1668	and	there	was	no
1233	and	they	did	n't
2808	and	they	do	n't
1204	and	things	like	that
1840	and	this	is	a
1903	and	this	is	the
1148	and	this	is	what
2571	and	we	do	n't
1117	and	we	have	a
1620	and	we	have	to
1266	and	we	need	to
1136	and	we	want	to
1060	and	what	do	you
1996	and	you	ca	n't
3247	and	you	do	n't
2082	and	you	have	to
1317	and	you	know	what
2607	anything	to	do	with
1446	appears	to	be	a
5748	are	a	lot	of
1876	are	a	number	of
7182	are	going	to	be
1114	are	going	to	get
2571	are	going	to	have
1138	are	less	likely	to
1784	are	likely	to	be
3866	are	more	likely	to
1548	are	n't	going	to
2679	are	not	going	to
1494	are	part	of	the
2325	are	some	of	the
1096	are	supposed	to	be
1410	are	they	going	to
3024	are	we	going	to
6957	are	you	going	to
1823	are	you	talking	about
1047	as	a	form	of
1438	as	a	function	of
1738	as	a	kind	of
4769	as	a	matter	of
2106	as	a	means	of
1675	as	a	member	of
11330	as	a	result	of
1907	as	a	way	of
2465	as	a	way	to
3249	as	far	as	i
2963	as	far	as	the
1157	as	i	understand	it
1498	as	if	he	had
3024	as	if	he	were
1032	as	if	i	were
3499	as	if	it	were
1064	as	if	she	had
2083	as	if	she	were
2761	as	if	they	were
1423	as	it	turned	out
1415	as	long	as	he
1996	as	long	as	i
1922	as	long	as	it
2745	as	long	as	the
2102	as	long	as	they
1303	as	long	as	we
2425	as	long	as	you
1645	as	much	as	i
1603	as	much	as	possible
1403	as	much	as	the
1068	as	much	as	they
5113	as	one	of	the
1247	as	opposed	to	the
3746	as	part	of	a
5047	as	part	of	the
1209	as	quickly	as	possible
1773	as	soon	as	he
2175	as	soon	as	i
1920	as	soon	as	possible
1042	as	soon	as	she
2252	as	soon	as	the
1430	as	soon	as	they
1128	as	soon	as	we
1188	as	soon	as	you
1024	as	we	know	it
4938	as	well	as	a
1286	as	well	as	for
2289	as	well	as	in
1231	as	well	as	other
12313	as	well	as	the
1070	as	well	as	their
2209	as	well	as	to
1589	as	you	can	see
5148	at	a	time	when
1437	at	least	in	the
1063	at	least	one	of
1026	at	least	some	of
1693	at	one	of	the
1310	at	some	of	the
3818	at	the	age	of
2080	at	the	back	of
1896	at	the	base	of
5244	at	the	beginning	of
3716	at	the	bottom	of
3570	at	the	center	of
1021	at	the	core	of
3145	at	the	edge	of
24866	at	the	end	of
2937	at	the	expense	of
1046	at	the	far	end
1833	at	the	foot	of
1542	at	the	hands	of
1263	at	the	head	of
3234	at	the	heart	of
1370	at	the	height	of
1000	at	the	kitchen	table
1327	at	the	last	minute
1218	at	the	level	of
1616	at	the	other	end
28702	at	the	same	time
1085	at	the	sight	of
1910	at	the	start	of
5532	at	the	time	of
1004	at	the	time	that
6607	at	the	top	of
1208	at	the	turn	of
3416	at	the	university	of
1943	at	the	very	least
3072	at	the	white	house
1266	at	this	point	in
1016	back	and	forth	between
1231	back	in	a	moment
1454	be	a	lot	of
1995	be	a	part	of
2548	be	able	to	do
2185	be	able	to	get
1149	be	able	to	make
1330	be	able	to	see
1289	be	back	in	a
1351	be	found	in	the
3448	be	one	of	the
1935	be	part	of	the
1076	be	used	as	a
1474	because	i	did	n't
2474	because	i	do	n't
1906	because	they	do	n't
1052	because	we	do	n't
1077	because	you	do	n't
1147	become	one	of	the
1632	been	a	lot	of
1561	been	one	of	the
1571	believe	it	or	not
1399	between	the	ages	of
1294	between	the	united	states
3142	both	sides	of	the
1541	bring	to	a	boil
1409	but	a	lot	of
2633	but	at	the	same
1173	but	he	could	n't
3144	but	he	did	n't
1427	but	he	does	n't
1132	but	he	was	n't
2808	but	i	ca	n't
1885	but	i	could	n't
4239	but	i	did	n't
10777	but	i	do	n't
1182	but	i	have	to
2537	but	i	think	it
2611	but	i	think	that
1853	but	i	think	the
1183	but	i	think	we
1592	but	i	want	to
1082	but	i	was	n't
1353	but	in	the	end
1942	but	it	did	n't
2256	but	it	does	n't
1364	but	it	is	a
1728	but	it	is	not
1810	but	it	was	a
3114	but	it	was	n't
1112	but	it	was	not
1140	but	it	was	the
1024	but	most	of	the
1402	but	one	of	the
1964	but	she	did	n't
2318	but	that	does	n't
1114	but	the	fact	is
1826	but	there	is	a
1482	but	there	is	no
1287	but	there	was	a
1958	but	there	was	no
1341	but	they	did	n't
2253	but	they	do	n't
1182	but	this	is	a
2071	but	we	do	n't
1051	but	we	have	to
2093	but	you	ca	n't
2396	but	you	do	n't
1833	but	you	have	to
1158	but	you	know	what
1201	by	one	of	the
8562	by	the	end	of
2871	by	the	fact	that
2177	by	the	time	he
2317	by	the	time	i
1189	by	the	time	she
2494	by	the	time	the
1445	by	the	time	they
1294	by	the	time	we
2219	by	the	united	states
1677	ca	n't	afford	to
1820	ca	n't	do	it
1715	ca	n't	do	that
1464	ca	n't	help	but
1463	ca	n't	tell	you
1005	ca	n't	think	of
1282	ca	n't	wait	to
1906	came	out	of	the
1054	came	up	with	a
1974	can	be	found	in
1124	can	be	seen	in
2770	can	be	used	to
1071	can	not	be	represented
1032	can	tell	you	that
1419	can	you	tell	us
1625	come	out	of	the
1137	come	to	terms	with
2804	come	up	with	a
1645	coming	out	of	the
1209	contributed	to	this	report
1095	could	be	used	to
1001	could	have	been	a
1073	could	n't	have	been
1354	couple	of	years	ago
2503	despite	the	fact	that
1423	did	n't	do	it
1660	did	n't	even	know
3674	did	n't	have	a
1815	did	n't	have	any
2647	did	n't	have	the
4411	did	n't	have	to
2044	did	n't	know	how
1103	did	n't	know	if
1671	did	n't	know	that
4755	did	n't	know	what
1203	did	n't	like	the
1077	did	n't	mean	to
1212	did	n't	need	to
1610	did	n't	say	anything
2392	did	n't	seem	to
13939	did	n't	want	to
1106	did	not	have	a
1007	did	not	have	the
3047	did	not	want	to
1141	did	you	know	that
1162	director	of	the	national
1670	do	a	lot	of
1062	do	n't	agree	with
1235	do	n't	believe	in
1044	do	n't	believe	it
1603	do	n't	believe	that
1227	do	n't	care	about
1182	do	n't	care	what
1470	do	n't	do	it
1250	do	n't	do	that
1027	do	n't	even	have
2765	do	n't	even	know
1231	do	n't	get	it
2878	do	n't	go	away
6867	do	n't	have	a
3987	do	n't	have	any
1032	do	n't	have	enough
1087	do	n't	have	that
4875	do	n't	have	the
1272	do	n't	have	time
13779	do	n't	have	to
2195	do	n't	know	about
1108	do	n't	know	anything
7433	do	n't	know	how
7505	do	n't	know	if
3026	do	n't	know	that
1994	do	n't	know	the
13128	do	n't	know	what
2386	do	n't	know	where
1494	do	n't	know	whether
1745	do	n't	know	who
3332	do	n't	know	why
1543	do	n't	like	it
1665	do	n't	like	the
1883	do	n't	like	to
1126	do	n't	need	a
3435	do	n't	need	to
1186	do	n't	really	know
1015	do	n't	see	any
1483	do	n't	seem	to
1195	do	n't	tell	me
2931	do	n't	think	he
4158	do	n't	think	i
6370	do	n't	think	it
4261	do	n't	think	so
6587	do	n't	think	that
2390	do	n't	think	the
2708	do	n't	think	there
2359	do	n't	think	they
3302	do	n't	think	we
2838	do	n't	think	you
1161	do	n't	try	to
1065	do	n't	want	the
27508	do	n't	want	to
1548	do	n't	want	you
2109	do	n't	worry	about
2903	do	n't	you	think
1047	do	not	have	the
1771	do	not	want	to
1118	do	something	about	it
1420	do	the	right	thing
1268	do	the	same	thing
1214	do	you	agree	with
1029	do	you	believe	that
1279	do	you	feel	about
2379	do	you	have	a
2613	do	you	have	any
1403	do	you	have	to
2105	do	you	know	what
1489	do	you	make	of
1592	do	you	think	about
1623	do	you	think	he
1166	do	you	think	i
2430	do	you	think	it
1785	do	you	think	of
4907	do	you	think	that
2594	do	you	think	the
1166	do	you	think	they
1123	do	you	think	this
2592	do	you	think	you
1174	do	you	want	me
5394	do	you	want	to
2081	does	n't	have	a
1404	does	n't	have	the
3073	does	n't	have	to
1037	does	n't	know	what
1489	does	n't	mean	that
2122	does	n't	seem	to
3667	does	n't	want	to
1243	does	not	mean	that
1446	during	the	course	of
1141	early	in	the	morning
1295	edition	from	npr	news
1209	either	side	of	the
1337	end	of	the	cold
3485	end	of	the	day
2069	end	of	the	year
1297	every	now	and	then
1104	every	once	in	a
4082	executive	director	of	the
1641	fact	of	the	matter
1745	fell	in	love	with
1974	figure	out	how	to
2756	find	a	way	to
1161	first	half	of	the
1854	food	and	drug	administration
2978	for	a	couple	of
1422	for	a	few	days
1686	for	a	few	minutes
9518	for	a	long	time
2201	for	a	lot	of
1792	for	a	number	of
1393	for	a	variety	of
3127	for	all	of	us
2252	for	as	long	as
4747	for	being	with	us
1320	for	disease	control	and
1635	for	each	of	the
1222	for	more	information	on
3524	for	more	than	a
1049	for	more	than	two
2128	for	most	of	the
1118	for	much	of	the
1244	for	one	of	the
1323	for	some	of	the
1146	for	the	benefit	of
1096	for	the	development	of
23594	for	the	first	time
5269	for	the	most	part
1806	for	the	new	york
1948	for	the	purpose	of
6667	for	the	rest	of
3412	for	the	sake	of
1340	for	the	study	of
1287	for	the	time	being
2922	for	the	united	states
1235	freshly	ground	black	pepper
1002	from	a	variety	of
2044	from	all	over	the
1567	from	around	the	world
1644	from	one	of	the
1141	from	side	to	side
1240	from	the	fact	that
1389	from	the	perspective	of
1445	from	the	rest	of
1010	from	the	top	of
2523	from	the	united	states
1099	from	the	very	beginning
1155	from	the	white	house
3606	from	time	to	time
1251	get	a	chance	to
1425	get	a	lot	of
1257	get	back	to	the
1960	get	out	of	here
3152	get	out	of	the
1451	get	rid	of	the
3379	go	back	to	the
1073	going	back	to	the
1800	going	on	in	the
10404	going	to	be	a
2739	going	to	be	able
1190	going	to	be	an
1938	going	to	be	in
3622	going	to	be	the
1611	going	to	be	very
2133	going	to	do	it
1102	going	to	do	that
1407	going	to	get	a
1013	going	to	give	you
1576	going	to	go	to
4068	going	to	have	a
11275	going	to	have	to
1175	going	to	make	a
1375	going	to	make	it
3135	going	to	take	a
1474	going	to	talk	about
1306	going	to	tell	you
1927	going	to	try	to
1150	good	morning	to	you
1194	good	to	have	you
2966	good	to	see	you
2459	got	a	lot	of
1438	got	out	of	the
1029	grew	up	in	the
2436	had	a	chance	to
3388	had	a	lot	of
1227	had	been	in	the
1366	had	no	idea	what
2522	had	nothing	to	do
1033	had	the	opportunity	to
1104	had	to	do	was
1258	had	to	do	with
1018	hard	for	me	to
1723	has	a	lot	of
1071	has	always	been	a
1302	has	been	able	to
1123	has	been	in	the
2376	has	nothing	to	do
1155	has	the	potential	to
1004	has	the	right	to
1368	has	to	be	a
3142	has	to	do	with
2055	have	a	chance	to
1188	have	a	hard	time
6195	have	a	lot	of
1097	have	a	problem	with
1886	have	a	right	to
1266	have	anything	to	do
3065	have	been	able	to
1157	have	been	in	the
1116	have	no	idea	what
1077	have	nothing	to	do
1119	have	the	ability	to
1341	have	the	opportunity	to
2437	have	the	right	to
1817	have	to	be	a
2136	have	to	deal	with
2168	have	to	do	is
1397	have	to	do	it
1815	have	to	do	with
1031	have	to	go	through
1865	have	to	go	to
1651	have	to	have	a
1705	have	to	look	at
1478	have	to	take	a
1554	have	to	tell	you
2335	have	to	worry	about
2014	he	and	his	wife
1035	he	did	n't	even
2867	he	did	n't	have
3216	he	did	n't	know
1115	he	did	n't	like
1072	he	did	n't	say
3432	he	did	n't	want
2262	he	does	n't	have
1644	he	does	n't	know
1834	he	does	n't	want
1526	he	is	going	to
1056	he	looked	at	me
1125	he	or	she	is
1622	he	said	he	was
2186	he	shook	his	head
1280	he	wanted	to	be
1790	he	was	able	to
1153	he	was	about	to
5814	he	was	going	to
1846	he	was	in	the
1106	he	was	on	the
1669	he	was	one	of
1011	he	was	talking	about
1943	he	was	trying	to
1160	he	went	to	the
1099	he	would	have	been
1365	he	would	have	to
1109	he	would	n't	have
1691	health	and	human	services
1054	here	at	abc	news
1591	here	in	new	york
1033	here	in	the	united
1157	him	out	of	the
1291	his	or	her	own
1027	his	way	to	the
1211	hour	and	a	half
1168	how	are	you	doing
1013	how	did	you	get
1971	how	do	you	feel
2609	how	do	you	know
1111	how	do	you	think
1396	how	to	deal	with
1265	how	to	do	it
1416	hundreds	of	millions	of
3413	hundreds	of	thousands	of
1986	i	am	going	to
1077	i	believe	that	the
3118	i	ca	n't	believe
1808	i	ca	n't	do
1133	i	ca	n't	even
1384	i	ca	n't	get
1365	i	ca	n't	help
1747	i	ca	n't	imagine
1189	i	ca	n't	remember
1751	i	ca	n't	say
1320	i	ca	n't	see
1757	i	ca	n't	tell
1121	i	ca	n't	wait
3345	i	can	tell	you
1251	i	could	n't	believe
1027	i	could	n't	get
1073	i	could	n't	help
1026	i	could	n't	see
1137	i	could	see	the
1440	i	did	n't	do
1868	i	did	n't	even
1032	i	did	n't	feel
1481	i	did	n't	get
4567	i	did	n't	have
9518	i	did	n't	know
1329	i	did	n't	like
1364	i	did	n't	mean
1001	i	did	n't	realize
1186	i	did	n't	really
1831	i	did	n't	say
2008	i	did	n't	see
3199	i	did	n't	think
6483	i	did	n't	want
4928	i	do	n't	believe
4412	i	do	n't	care
1003	i	do	n't	do
2990	i	do	n't	even
2174	i	do	n't	feel
1901	i	do	n't	get
9979	i	do	n't	have
54861	i	do	n't	know
4971	i	do	n't	like
1939	i	do	n't	mean
1121	i	do	n't	mind
2228	i	do	n't	need
2480	i	do	n't	really
2477	i	do	n't	remember
5182	i	do	n't	see
43814	i	do	n't	think
3172	i	do	n't	understand
18745	i	do	n't	want
1395	i	do	not	know
1083	i	do	not	think
1868	i	do	nt	know
1565	i	do	nt	think
1145	i	do	think	that
1993	i	feel	like	i
1285	i	felt	like	i
1229	i	grew	up	in
1989	i	had	no	idea
1328	i	had	to	do
1064	i	have	a	lot
1245	i	have	n't	been
1736	i	have	n't	seen
2033	i	have	no	idea
1036	i	have	to	be
1357	i	have	to	do
1532	i	have	to	go
2412	i	have	to	say
1379	i	have	to	tell
1404	i	just	ca	n't
1001	i	just	did	n't
3158	i	just	do	n't
3932	i	just	want	to
2582	i	just	wanted	to
1243	i	knew	it	was
1025	i	looked	at	the
2417	i	really	do	n't
2117	i	think	a	lot
1100	i	think	he	was
1061	i	think	if	you
3237	i	think	it	is
3747	i	think	it	was
1134	i	think	it	will
1643	i	think	it	would
1377	i	think	one	of
1393	i	think	that	is
2067	i	think	that	it
1328	i	think	that	that
4393	i	think	that	the
1524	i	think	that	there
1062	i	think	that	they
2111	i	think	that	we
1203	i	think	the	president
1746	i	think	there	are
1602	i	think	there	is
2943	i	think	this	is
1282	i	think	we	can
2573	i	think	we	have
1179	i	think	we	need
1563	i	think	we	should
1178	i	think	you	have
1241	i	thought	he	was
1659	i	thought	i	was
3648	i	thought	it	was
1176	i	thought	you	were
1935	i	want	to	ask
3655	i	want	to	be
2146	i	want	to	do
1791	i	want	to	get
2264	i	want	to	go
2262	i	want	to	know
1389	i	want	to	make
1407	i	want	to	say
1698	i	want	to	see
1008	i	want	to	show
1246	i	want	to	talk
1286	i	want	to	thank
5129	i	want	you	to
2063	i	wanted	to	be
1498	i	wanted	to	do
1363	i	was	a	kid
1406	i	was	a	little
2400	i	was	able	to
1039	i	was	about	to
6627	i	was	going	to
1120	i	was	in	a
2381	i	was	in	the
1068	i	was	n't	going
1166	i	was	n't	sure
1165	i	was	on	the
2151	i	was	trying	to
1903	i	went	to	the
1586	i	wish	i	could
1334	i	wo	n't	be
1089	i	would	have	been
1573	i	would	have	to
6754	i	would	like	to
1846	i	would	n't	be
2270	i	would	n't	have
1111	i	would	n't	want
1512	i	would	say	that
1491	if	he	did	n't
1614	if	he	does	n't
1864	if	i	did	n't
2256	if	i	do	n't
1404	if	it	does	n't
1006	if	it	had	been
1169	if	it	was	n't
1359	if	it	were	a
1197	if	it	were	n't
2189	if	there	is	a
1217	if	there	was	a
1044	if	they	did	n't
3307	if	they	do	n't
1380	if	they	want	to
3180	if	we	do	n't
3160	if	you	ca	n't
1419	if	you	did	n't
12543	if	you	do	n't
3471	if	you	have	a
4263	if	you	look	at
8789	if	you	want	to
1043	important	to	note	that
1854	in	a	couple	of
1079	in	a	few	minutes
1016	in	a	kind	of
1396	in	a	large	bowl
1211	in	a	letter	to
1104	in	a	long	time
2530	in	a	lot	of
1386	in	a	matter	of
2312	in	a	number	of
2031	in	a	position	to
2320	in	a	series	of
1739	in	a	state	of
2846	in	a	variety	of
6359	in	a	way	that
1026	in	accordance	with	the
4752	in	addition	to	the
2859	in	an	attempt	to
4073	in	an	effort	to
4335	in	and	out	of
2122	in	charge	of	the
1682	in	contrast	to	the
1443	in	each	of	the
1915	in	favor	of	the
3708	in	front	of	a
2875	in	front	of	her
3378	in	front	of	him
1355	in	front	of	his
2560	in	front	of	me
12006	in	front	of	the
1398	in	front	of	them
1037	in	front	of	us
1446	in	front	of	you
1135	in	just	a	few
1917	in	just	a	moment
2004	in	light	of	the
1982	in	new	york	and
3076	in	new	york	city
5006	in	one	of	the
1465	in	order	to	be
1787	in	order	to	get
1275	in	order	to	make
1231	in	other	parts	of
1013	in	part	because	of
1550	in	relation	to	the
2230	in	response	to	the
1803	in	some	of	the
2103	in	spite	of	the
1999	in	such	a	way
5630	in	terms	of	the
1014	in	terms	of	their
1021	in	terms	of	what
3120	in	the	absence	of
1785	in	the	aftermath	of
1114	in	the	arab	world
2291	in	the	area	of
4149	in	the	back	of
1123	in	the	back	seat
9026	in	the	case	of
4109	in	the	center	of
1327	in	the	city	of
1029	in	the	company	of
5224	in	the	context	of
3460	in	the	course	of
2182	in	the	development	of
1000	in	the	dining	room
2780	in	the	direction	of
1026	in	the	early	days
1375	in	the	event	of
2010	in	the	eyes	of
6293	in	the	face	of
1067	in	the	fact	that
1953	in	the	fall	of
2095	in	the	field	of
1658	in	the	first	half
7564	in	the	first	place
1079	in	the	first	quarter
1276	in	the	first	round
7067	in	the	form	of
1184	in	the	fourth	quarter
3436	in	the	hands	of
2108	in	the	heart	of
4663	in	the	history	of
1192	in	the	interest	of
1030	in	the	last	decade
2160	in	the	last	few
1771	in	the	last	two
1441	in	the	last	year
1171	in	the	life	of
1430	in	the	light	of
1177	in	the	lives	of
2910	in	the	living	room
3152	in	the	long	run
5930	in	the	middle	east
17907	in	the	middle	of
5146	in	the	midst	of
1112	in	the	minds	of
1737	in	the	morning	and
4175	in	the	name	of
1535	in	the	near	future
2825	in	the	new	york
1764	in	the	next	few
1001	in	the	nineteenth	century
2519	in	the	number	of
1368	in	the	old	days
1191	in	the	opposite	direction
1581	in	the	parking	lot
1060	in	the	past	decade
1550	in	the	past	few
1416	in	the	past	two
1828	in	the	past	year
1968	in	the	presence	of
1852	in	the	present	study
3953	in	the	process	of
1415	in	the	real	world
1159	in	the	rest	of
1779	in	the	right	direction
2958	in	the	same	way
1702	in	the	second	half
1190	in	the	sense	of
2469	in	the	sense	that
1274	in	the	shadow	of
1063	in	the	shape	of
1200	in	the	short	term
1165	in	the	soviet	union
2032	in	the	spring	of
2311	in	the	state	of
2301	in	the	summer	of
36025	in	the	united	states
1164	in	the	use	of
4063	in	the	wake	of
3212	in	the	way	of
1213	in	the	way	that
1346	in	the	west	bank
2812	in	the	white	house
1935	in	the	words	of
1114	in	the	world	and
1816	in	the	world	of
1316	into	one	of	the
1066	into	the	hands	of
1195	into	the	living	room
1311	is	a	kind	of
2350	is	a	lot	of
1515	is	a	matter	of
1457	is	a	member	of
1125	is	an	example	of
1061	is	based	on	a
1793	is	based	on	the
1303	is	expected	to	be
13210	is	going	to	be
1242	is	going	to	happen
2023	is	going	to	have
1009	is	important	to	note
1041	is	it	going	to
2331	is	likely	to	be
1042	is	more	likely	to
2006	is	n't	going	to
1053	is	n't	the	only
3549	is	not	going	to
1443	is	not	the	only
1172	is	not	to	say
15929	is	one	of	the
1566	is	one	of	those
1703	is	part	of	a
2961	is	part	of	the
1001	is	said	to	be
1730	is	supposed	to	be
1997	is	talk	of	the
1382	is	that	it	is
1049	is	that	there	are
1089	is	that	there	is
1377	is	that	what	you
2806	is	the	author	of
2255	is	the	fact	that
1637	is	the	first	time
1555	is	the	kind	of
1306	is	the	most	important
1226	is	the	result	of
1550	it	ca	n't	be
1205	it	can	not	be
1403	it	comes	to	the
1273	it	could	be	a
1702	it	could	have	been
1548	it	did	n't	matter
1086	it	did	n't	work
1638	it	does	n't	have
1267	it	does	n't	make
3620	it	does	n't	matter
1175	it	does	n't	mean
1112	it	does	n't	work
1529	it	had	been	a
1659	it	had	to	be
1269	it	has	been	a
2684	it	has	to	be
1147	it	has	to	do
2186	it	is	clear	that
2687	it	is	difficult	to
1274	it	is	easy	to
1537	it	is	going	to
2058	it	is	hard	to
4546	it	is	important	to
1343	it	is	impossible	to
1356	it	is	in	the
1121	it	is	likely	that
1251	it	is	necessary	to
2153	it	is	not	a
1047	it	is	not	clear
1092	it	is	not	surprising
1364	it	is	not	the
1393	it	is	one	of
1783	it	is	possible	that
2079	it	is	possible	to
1230	it	is	time	to
1735	it	is	true	that
1081	it	looks	like	a
1423	it	may	be	that
1422	it	may	not	be
1030	it	means	to	be
1320	it	might	have	been
1563	it	must	have	been
1069	it	needs	to	be
1163	it	out	of	the
1289	it	seems	to	be
4859	it	seems	to	me
1328	it	should	be	noted
1606	it	turns	out	that
2487	it	used	to	be
1763	it	was	a	good
1144	it	was	a	great
2134	it	was	a	very
2404	it	was	as	if
1196	it	was	clear	that
2785	it	was	going	to
1930	it	was	hard	to
1907	it	was	in	the
2231	it	was	just	a
1240	it	was	kind	of
1471	it	was	like	a
2531	it	was	n't	a
1259	it	was	n't	just
1068	it	was	n't	that
1669	it	was	n't	the
2032	it	was	n't	until
1538	it	was	not	a
2605	it	was	one	of
1014	it	was	only	a
2752	it	was	the	first
1150	it	was	the	only
1045	it	was	time	for
2561	it	was	time	to
1502	it	was	too	late
2124	it	will	be	a
2229	it	wo	n't	be
4589	it	would	be	a
1026	it	would	be	like
1029	it	would	be	the
4333	it	would	have	been
1781	it	would	n't	be
1063	it	would	not	be
1231	just	a	couple	of
1407	just	a	little	bit
1407	just	a	matter	of
1346	just	do	n't	know
1408	keep	an	eye	on
1427	keep	in	mind	that
1999	know	what	i	mean
1192	know	what	it	is
2898	know	what	to	do
1192	know	what	to	say
1002	less	than	a	year
5797	let	me	ask	you
3398	let	me	tell	you
1137	like	a	lot	of
1036	like	the	rest	of
1118	little	bit	of	a
1829	little	more	than	a
1027	long	way	to	go
1749	lot	of	people	are
1054	lot	of	people	in
1607	lot	of	people	who
1219	made	it	clear	that
1044	make	a	lot	of
1265	make	sure	that	the
2001	may	be	able	to
1019	may	not	be	able
1096	may	not	be	the
1007	may	not	have	been
2133	may	or	may	not
1127	me	ask	you	about
1055	me	ask	you	this
1001	meet	the	needs	of
1278	men	and	women	who
2650	middle	of	the	night
2341	might	be	able	to
1004	millions	of	dollars	in
1071	minutes	past	the	hour
2554	more	likely	to	be
1042	more	likely	to	have
1267	more	often	than	not
2266	more	than	a	decade
1751	more	than	a	dozen
1886	more	than	a	few
2435	more	than	a	year
1519	more	than	any	other
1006	more	than	anything	else
2359	more	than	half	of
1116	more	than	just	a
1215	most	of	the	people
3800	most	of	the	time
1598	much	for	being	with
1998	much	for	joining	us
1355	my	husband	and	i
1408	my	wife	and	i
3237	n't	be	able	to
1573	n't	been	able	to
1578	n't	going	to	be
1355	n't	have	time	to
3522	n't	have	to	be
1194	n't	have	to	do
1162	n't	have	to	go
1673	n't	have	to	worry
1250	n't	know	anything	about
3455	n't	know	how	to
1626	n't	know	if	i
1268	n't	know	if	it
1319	n't	know	if	you
1386	n't	know	what	i
1350	n't	know	what	it
1453	n't	know	what	the
3781	n't	know	what	to
1253	n't	know	what	you
1085	n't	need	to	be
1708	n't	seem	to	be
1051	n't	think	it	was
5896	n't	want	to	be
2182	n't	want	to	do
1748	n't	want	to	get
2521	n't	want	to	go
1270	n't	want	to	have
1268	n't	want	to	hear
1682	n't	want	to	see
1323	n't	want	to	talk
1329	n't	want	you	to
1003	nation	from	npr	news
1165	near	the	end	of
1370	needs	to	be	done
1049	never	be	able	to
1129	new	york	stock	exchange
1658	nice	to	see	you
1738	no	choice	but	to
1171	no	matter	how	much
1176	no	matter	what	the
1386	no	more	than	a
1323	no	such	thing	as
1104	not	a	lot	of
3472	not	be	able	to
1201	not	been	able	to
1245	not	being	able	to
5891	not	going	to	be
1353	not	going	to	do
1838	not	going	to	get
1080	not	going	to	happen
1024	not	going	to	have
1327	not	to	mention	the
1248	not	to	say	that
1025	not	want	to	be
1292	nothing	more	than	a
6834	nothing	to	do	with
1517	of	a	lot	of
1019	of	a	man	who
1348	of	a	number	of
1019	of	a	series	of
1246	of	health	and	human
1147	of	his	or	her
1594	of	millions	of	dollars
4056	of	one	of	the
1119	of	people	in	the
1407	of	people	who	are
2848	of	some	of	the
1789	of	the	american	people
1169	of	the	cold	war
3073	of	the	fact	that
1120	of	the	federal	government
1027	of	the	importance	of
1993	of	the	matter	is
1269	of	the	middle	east
2485	of	the	most	important
1056	of	the	most	popular
1048	of	the	nation	from
3261	of	the	new	york
1276	of	the	nineteenth	century
1016	of	the	number	of
1211	of	the	people	in
2585	of	the	people	who
1060	of	the	relationship	between
1038	of	the	republican	party
1560	of	the	rest	of
1522	of	the	state	of
1220	of	the	things	i
5457	of	the	things	that
1851	of	the	twentieth	century
1857	of	the	united	nations
17955	of	the	united	states
1281	of	the	white	house
1293	of	this	study	was
1064	of	thousands	of	dollars
1196	of	us	here	at
1171	off	the	coast	of
1537	on	a	daily	basis
1165	on	a	number	of
1613	on	a	regular	basis
2095	on	behalf	of	the
2476	on	both	sides	of
1891	on	either	side	of
1813	on	his	way	to
2287	on	one	of	the
1039	on	one	side	of
1482	on	reader	service	card
1144	on	some	of	the
3119	on	the	back	of
7274	on	the	basis	of
1023	on	the	brink	of
1032	on	the	cover	of
1126	on	the	day	of
4213	on	the	edge	of
1555	on	the	eve	of
1095	on	the	fact	that
1069	on	the	first	day
1123	on	the	floor	and
1454	on	the	floor	of
1145	on	the	grounds	that
1463	on	the	issue	of
1195	on	the	morning	of
1021	on	the	new	york
1040	on	the	night	of
4451	on	the	one	hand
1175	on	the	other	end
19077	on	the	other	hand
7998	on	the	other	side
1181	on	the	outskirts	of
5847	on	the	part	of
1107	on	the	road	to
3491	on	the	side	of
1230	on	the	streets	of
1280	on	the	subject	of
1084	on	the	top	of
2835	on	the	verge	of
2620	on	the	way	to
1470	on	their	way	to
1012	on	top	of	that
3916	on	top	of	the
1185	once	and	for	all
2679	once	in	a	while
1046	once	upon	a	time
1565	one	at	a	time
1197	one	end	of	the
1103	one	of	my	favorite
5124	one	of	the	best
1028	one	of	the	big
2454	one	of	the	biggest
4631	one	of	the	few
4774	one	of	the	first
2429	one	of	the	great
1758	one	of	the	greatest
1870	one	of	the	largest
1179	one	of	the	last
1351	one	of	the	main
1306	one	of	the	major
1504	one	of	the	many
1041	one	of	the	men
1716	one	of	the	more
20177	one	of	the	most
1442	one	of	the	nation
1101	one	of	the	other
1059	one	of	the	problems
3576	one	of	the	reasons
7636	one	of	the	things
1011	one	of	the	three
1243	one	of	the	top
1447	one	of	the	two
2301	one	of	the	world
1083	one	of	the	worst
1297	one	of	them	is
1024	one	of	them	was
1833	one	side	of	the
1693	one	way	or	another
1152	one	way	or	the
1161	only	a	handful	of
1024	only	one	of	the
1037	or	anything	like	that
1631	or	something	like	that
1997	other	end	of	the
1364	other	members	of	the
2354	other	parts	of	the
5393	other	side	of	the
1116	out	in	front	of
2379	out	of	the	car
1034	out	of	the	country
2192	out	of	the	house
1686	out	of	the	room
1379	out	of	the	water
3065	out	of	the	way
2771	out	to	be	a
1215	out	to	be	the
1595	over	a	period	of
2947	over	and	over	again
3343	over	the	course	of
1002	over	the	last	few
1547	over	the	next	few
1339	over	the	past	decade
1311	over	the	past	few
1312	over	the	past	two
1097	part	of	the	country
1889	part	of	the	problem
1209	part	of	the	reason
1664	part	of	the	world
1545	parts	of	the	country
1688	parts	of	the	world
2528	people	are	going	to
1749	people	who	do	n't
1112	people	who	have	been
1127	people	who	want	to
1060	percent	of	the	people
1616	percent	of	the	population
1222	percent	of	the	time
1244	percent	of	the	total
1320	percent	of	the	vote
1079	play	a	role	in
1200	player	of	the	year
1005	point	of	view	of
1002	president	of	the	national
5509	president	of	the	united
1162	purpose	of	this	study
1123	put	an	end	to
1019	put	it	in	the
1208	really	do	n't	know
1003	reason	to	believe	that
1418	remains	to	be	seen
1197	rest	of	his	life
1264	rest	of	my	life
1237	rest	of	the	country
3818	rest	of	the	world
1044	results	of	this	study
1438	right	in	front	of
1371	right	thing	to	do
1748	said	in	an	interview
1190	salt	and	pepper	to
1241	second	half	of	the
1322	see	a	lot	of
1044	see	if	we	can
1814	seems	to	be	a
1303	seems	to	be	the
1179	seems	to	have	been
2320	seems	to	me	that
1636	she	and	her	husband
1560	she	did	n't	have
2144	she	did	n't	know
2480	she	did	n't	want
1822	she	shook	her	head
2705	she	was	going	to
3169	should	be	able	to
1014	should	be	noted	that
1669	side	of	the	road
1207	so	as	not	to
1408	so	far	as	to
2821	so	i	do	n't
1429	so	i	think	that
1390	so	that	they	can
1237	so	that	we	can
1104	so	what	do	you
1765	so	you	do	n't
1737	some	of	the	best
1046	some	of	the	more
3834	some	of	the	most
1803	some	of	the	other
1181	some	of	the	people
1820	some	of	the	things
1262	some	of	them	are
2376	something	to	do	with
1174	son	of	a	bitch
1297	spend	a	lot	of
1522	spent	a	lot	of
1130	standing	in	front	of
1498	state	of	the	union
1279	such	a	way	that
1255	supposed	to	be	a
5391	take	a	look	at
1599	take	advantage	of	the
1410	take	care	of	the
4226	talk	of	the	nation
1059	tens	of	millions	of
3527	tens	of	thousands	of
1213	than	half	of	the
1371	thank	you	for	being
1273	thank	you	for	joining
1100	thank	you	for	your
4723	thank	you	so	much
11905	thank	you	very	much
1349	thanks	for	being	with
1629	thanks	for	joining	us
1210	thanks	so	much	for
2014	thanks	very	much	for
2780	that	a	lot	of
1215	that	are	going	to
1081	that	ca	n't	be
1082	that	can	be	used
1354	that	can	not	be
2794	that	does	n't	mean
1033	that	has	to	be
2463	that	he	did	n't
1258	that	he	did	not
1243	that	he	does	n't
1547	that	he	had	been
1005	that	he	wanted	to
1586	that	he	was	a
1150	that	he	was	going
1144	that	he	was	n't
1181	that	he	was	not
1078	that	he	would	be
1027	that	i	could	n't
2303	that	i	did	n't
2974	that	i	do	n't
1341	that	is	going	to
1264	that	is	to	say
1050	that	it	does	n't
1454	that	it	is	a
1438	that	it	is	not
2404	that	it	was	a
1320	that	it	was	n't
1104	that	it	was	not
1266	that	it	was	the
2681	that	it	would	be
1238	that	kind	of	thing
1481	that	led	to	the
1477	that	many	of	the
1781	that	most	of	the
1102	that	need	to	be
1216	that	needs	to	be
2741	that	one	of	the
1640	that	part	of	the
1227	that	she	did	n't
2311	that	some	of	the
1664	that	sort	of	thing
1060	that	the	number	of
4739	that	the	united	states
4567	that	there	is	a
2684	that	there	is	no
3003	that	there	was	a
2000	that	there	was	no
1624	that	there	will	be
1366	that	there	would	be
1047	that	they	are	not
1231	that	they	did	n't
2330	that	they	do	n't
2786	that	this	is	a
1093	that	this	is	not
1453	that	this	is	the
1337	that	this	was	a
2685	that	we	do	n't
1133	that	we	have	a
1911	that	we	have	to
1711	that	we	need	to
1792	that	would	be	a
1145	that	would	be	the
1720	that	would	have	been
2029	that	you	ca	n't
2898	that	you	do	n't
1918	that	you	have	to
1154	the	absence	of	a
1143	the	aftermath	of	the
1021	the	age	of	the
1143	the	american	people	are
1109	the	amount	of	time
1002	the	answer	to	that
1748	the	author	of	the
1718	the	back	of	a
1727	the	back	of	her
2639	the	back	of	his
1471	the	back	of	my
7837	the	back	of	the
2194	the	base	of	the
1631	the	basis	of	the
1652	the	beginning	of	a
6230	the	beginning	of	the
1183	the	benefit	of	the
1033	the	best	in	the
1230	the	best	of	the
4688	the	best	way	to
1787	the	bottom	line	is
6338	the	bottom	of	the
1329	the	bulk	of	the
2586	the	case	of	the
1003	the	center	of	a
7158	the	center	of	the
2293	the	chairman	of	the
1445	the	civil	rights	movement
1510	the	collapse	of	the
1850	the	context	of	the
1021	the	core	of	the
1350	the	corner	of	the
1604	the	cost	of	the
1228	the	course	of	a
3155	the	course	of	the
1768	the	creation	of	a
1269	the	creation	of	the
1200	the	current	results	set
1572	the	day	of	the
2032	the	degree	to	which
1548	the	development	of	a
2066	the	development	of	the
1428	the	difference	between	the
2219	the	direction	of	the
2157	the	director	of	the
1275	the	door	of	the
1476	the	door	to	the
1022	the	early	days	of
1268	the	edge	of	a
7783	the	edge	of	the
1082	the	edges	of	the
1041	the	effect	of	the
1331	the	effects	of	the
2996	the	end	of	a
1784	the	end	of	his
1084	the	end	of	it
30768	the	end	of	the
2228	the	end	of	this
1149	the	environmental	protection	agency
3786	the	extent	to	which
1406	the	eyes	of	the
1039	the	face	of	a
2634	the	face	of	the
1900	the	fact	is	that
1692	the	fact	of	the
3381	the	fact	that	he
1833	the	fact	that	i
2283	the	fact	that	it
1478	the	fact	that	she
7165	the	fact	that	the
1508	the	fact	that	there
2523	the	fact	that	they
1099	the	fact	that	this
2173	the	fact	that	we
1434	the	fact	that	you
1151	the	far	end	of
1124	the	far	side	of
1622	the	first	day	of
2036	the	first	half	of
1179	the	first	of	the
1076	the	first	thing	i
1311	the	first	time	he
2976	the	first	time	i
6934	the	first	time	in
2744	the	first	time	since
1680	the	first	time	that
1804	the	floor	of	the
1295	the	food	and	drug
1555	the	foot	of	the
1978	the	form	of	a
3575	the	front	of	the
1970	the	future	of	the
1119	the	goal	is	to
1398	the	good	news	is
1967	the	hands	of	the
4691	the	head	of	the
4142	the	heart	of	the
1390	the	height	of	the
1274	the	hell	out	of
4045	the	history	of	the
1641	the	house	of	representatives
2086	the	idea	of	a
1198	the	idea	of	the
1175	the	idea	that	the
1473	the	image	of	the
1683	the	impact	of	the
1968	the	importance	of	the
1022	the	inside	of	the
1016	the	interests	of	the
1223	the	kind	of	thing
2083	the	last	couple	of
2121	the	last	few	years
1417	the	last	five	years
1919	the	last	of	the
1182	the	last	three	years
1418	the	last	time	i
1985	the	last	two	years
1602	the	leader	of	the
1098	the	leaders	of	the
1903	the	length	of	the
1103	the	level	of	the
1111	the	life	of	a
2071	the	life	of	the
1000	the	light	of	the
1469	the	los	angeles	times
1002	the	magnitude	of	the
2814	the	majority	of	the
1423	the	man	in	the
1151	the	manner	in	which
1237	the	meaning	of	the
2123	the	members	of	the
1051	the	men	and	women
1083	the	middle	east	and
2887	the	middle	of	a
11742	the	middle	of	the
1245	the	midst	of	a
2518	the	most	important	thing
1009	the	mouth	of	the
3597	the	name	of	the
1097	the	names	of	the
1007	the	nation	from	npr
4343	the	nature	of	the
1389	the	need	for	a
1731	the	needs	of	the
1001	the	new	york	stock
9909	the	new	york	times
1145	the	next	couple	of
1109	the	next	few	days
1555	the	next	few	years
1482	the	next	five	years
1129	the	next	two	years
1119	the	night	of	the
1722	the	number	of	people
1083	the	office	of	the
1001	the	one	with	the
1733	the	only	one	who
1379	the	only	thing	i
2303	the	only	thing	that
3637	the	only	way	to
1004	the	opening	of	the
2250	the	other	end	of
7054	the	other	side	of
1097	the	other	way	around
1087	the	outcome	of	the
1063	the	owner	of	the
3613	the	part	of	the
2212	the	past	few	years
1891	the	past	five	years
1505	the	past	three	years
1063	the	past	two	decades
2205	the	past	two	years
1917	the	people	in	the
1424	the	people	of	the
2206	the	people	who	are
1085	the	point	of	view
1045	the	position	of	the
1518	the	possibility	of	a
2506	the	power	of	the
1286	the	presence	of	a
1450	the	presence	of	the
4573	the	president	of	the
2275	the	problem	is	that
2092	the	purpose	of	the
2274	the	purpose	of	this
1051	the	quality	of	life
2350	the	quality	of	the
1011	the	question	of	the
1676	the	question	of	whether
1260	the	rear	of	the
1759	the	relationship	between	the
1143	the	remainder	of	the
1234	the	rest	of	her
2354	the	rest	of	his
1839	the	rest	of	my
23606	the	rest	of	the
4043	the	rest	of	us
1405	the	rest	of	your
1365	the	result	of	a
1035	the	result	of	the
2760	the	results	of	the
1474	the	results	of	this
1015	the	right	of	the
1097	the	right	side	of
1481	the	right	thing	to
3228	the	role	of	the
1656	the	rule	of	law
1054	the	same	as	the
2246	the	same	kind	of
1093	the	same	time	that
1263	the	same	way	that
1839	the	second	half	of
1217	the	secretary	of	state
1015	the	shape	of	the
6223	the	side	of	the
1303	the	site	of	the
3202	the	size	of	a
4379	the	size	of	the
1433	the	son	of	a
1186	the	sound	of	a
2004	the	sound	of	the
1456	the	source	of	the
1319	the	spirit	of	the
2560	the	start	of	the
2197	the	state	of	the
1337	the	story	of	a
2116	the	story	of	the
1132	the	strength	of	the
1175	the	structure	of	the
1611	the	success	of	the
1052	the	support	of	the
2430	the	surface	of	the
1064	the	terms	of	the
1011	the	things	that	we
1030	the	three	of	them
1089	the	three	of	us
3967	the	time	of	the
1063	the	tip	of	the
1075	the	top	of	a
1279	the	top	of	his
10114	the	top	of	the
1641	the	total	number	of
1026	the	truth	is	that
2493	the	turn	of	the
3625	the	two	of	them
1450	the	two	of	us
1586	the	two	of	you
10619	the	united	states	and
1047	the	united	states	are
1237	the	united	states	as
1216	the	united	states	for
1197	the	united	states	government
3833	the	united	states	has
3144	the	united	states	in
4540	the	united	states	is
1866	the	united	states	of
1062	the	united	states	senate
1115	the	united	states	should
3164	the	united	states	to
1593	the	united	states	was
1299	the	united	states	will
1151	the	united	states	would
1438	the	use	of	a
1028	the	use	of	force
2620	the	use	of	the
2003	the	value	of	the
3376	the	vast	majority	of
1770	the	wake	of	the
1066	the	wall	street	journal
1029	the	walls	of	the
1946	the	war	in	iraq
1371	the	war	on	terror
2068	the	way	in	which
1504	the	way	it	is
1118	the	way	it	was
3236	the	way	to	the
2007	the	ways	in	which
1181	the	weight	of	the
1149	the	west	bank	and
1152	the	white	house	and
1513	the	work	of	the
1229	the	world	trade	center
1186	there	are	a	few
5786	there	are	a	lot
1809	there	are	a	number
1294	there	are	lots	of
1233	there	are	people	who
1569	there	are	plenty	of
2673	there	are	so	many
1007	there	can	be	no
1161	there	had	been	a
2854	there	has	been	a
1543	there	has	to	be
1825	there	is	a	lot
1176	there	is	also	a
1002	there	is	n't	a
1229	there	is	no	doubt
1137	there	is	no	evidence
1154	there	is	no	question
1164	there	is	no	reason
1563	there	is	no	way
1095	there	may	be	a
1514	there	seems	to	be
2211	there	was	a	lot
1219	there	was	a	time
1248	there	was	n't	a
1008	there	was	no	one
1901	there	was	no	way
1072	there	was	only	one
1443	there	were	a	lot
2978	there	will	be	a
1918	there	will	be	no
1045	there	wo	n't	be
1570	there	would	be	a
2114	there	would	be	no
2438	they	are	going	to
1951	they	did	n't	have
1599	they	did	n't	know
1445	they	did	n't	want
1082	they	do	n't	get
5242	they	do	n't	have
3029	they	do	n't	know
1358	they	do	n't	like
4335	they	do	n't	want
1215	they	have	to	be
1149	they	need	to	be
1324	they	want	to	be
1040	they	want	to	do
1331	they	were	able	to
3076	they	were	going	to
1172	they	were	in	the
2163	think	a	lot	of
1168	think	it	was	a
1728	think	it	would	be
1101	think	of	it	as
1299	think	one	of	the
1274	think	this	is	a
1365	think	we	have	to
1081	think	we	need	to
1006	this	has	been	a
1172	this	is	a	good
1074	this	is	a	great
2338	this	is	a	very
3970	this	is	going	to
3865	this	is	not	a
2178	this	is	not	the
1159	this	is	not	to
2940	this	is	one	of
1139	this	is	something	that
1970	this	is	talk	of
2706	this	is	the	first
1095	this	is	the	most
1131	this	is	the	way
1159	this	is	weekend	edition
1556	this	is	what	i
1018	this	is	what	we
1672	this	part	of	the
1152	this	study	was	to
1335	this	time	of	year
1069	this	was	the	first
2229	those	of	us	who
1003	those	who	do	n't
1622	thought	it	was	a
1481	thought	it	would	be
1262	three	and	a	half
1094	three	times	a	week
1202	through	the	use	of
2034	to	a	lot	of
1599	to	be	a	good
1373	to	be	a	little
1116	to	be	a	lot
1315	to	be	a	part
1289	to	be	a	very
14614	to	be	able	to
1671	to	be	in	a
4053	to	be	in	the
2901	to	be	on	the
2744	to	be	one	of
2718	to	be	part	of
1171	to	be	the	best
1312	to	be	the	first
1663	to	be	the	most
1316	to	be	with	you
1082	to	believe	that	the
1225	to	come	back	to
1231	to	come	out	of
1487	to	come	to	the
3679	to	come	up	with
1262	to	deal	with	it
3803	to	deal	with	the
1498	to	do	is	to
1575	to	do	something	about
1878	to	do	the	same
2506	to	do	with	it
6529	to	do	with	the
1489	to	ensure	that	the
1907	to	figure	out	how
1964	to	figure	out	what
1699	to	find	a	way
2330	to	find	out	what
1589	to	focus	on	the
1570	to	get	away	from
2322	to	get	back	to
1611	to	get	into	the
5057	to	get	out	of
3540	to	get	rid	of
3121	to	get	to	the
1137	to	give	you	a
1062	to	go	back	and
4656	to	go	back	to
1053	to	go	into	the
2201	to	go	out	and
1572	to	go	to	a
5729	to	go	to	the
1027	to	have	to	be
1632	to	keep	up	with
1800	to	learn	how	to
1356	to	learn	more	about
1022	to	live	in	a
1132	to	look	at	it
3971	to	look	at	the
1070	to	make	a	difference
1205	to	make	sense	of
5938	to	make	sure	that
1462	to	make	sure	the
1087	to	make	sure	they
1195	to	make	up	for
3124	to	one	of	the
2132	to	participate	in	the
1145	to	pay	for	it
1504	to	pay	for	the
1608	to	pick	up	the
1358	to	point	out	that
1105	to	respond	to	the
1794	to	return	to	the
1088	to	say	that	i
1963	to	say	that	the
1059	to	see	if	the
1244	to	set	up	a
2072	to	some	of	the
1268	to	stay	in	the
2472	to	take	a	break
1344	to	take	a	look
2740	to	take	advantage	of
4875	to	take	care	of
1965	to	talk	about	it
2467	to	talk	about	the
1325	to	talk	of	the
1201	to	talk	to	the
2446	to	talk	to	you
1090	to	tell	the	truth
1261	to	tell	you	that
1809	to	the	american	people
1411	to	the	back	of
1637	to	the	bottom	of
1024	to	the	conclusion	that
1425	to	the	development	of
1598	to	the	edge	of
2483	to	the	end	of
3122	to	the	extent	that
3429	to	the	fact	that
1006	to	the	idea	of
1039	to	the	level	of
1015	to	the	needs	of
1024	to	the	new	york
1374	to	the	other	side
2094	to	the	point	of
1141	to	the	point	that
2829	to	the	point	where
1966	to	the	rest	of
1273	to	the	side	of
2601	to	the	top	of
1578	to	the	united	nations
8497	to	the	united	states
1021	to	the	use	of
1665	to	the	white	house
1415	to	think	about	it
1598	to	try	to	get
1199	to	work	in	the
1108	to	work	with	the
2025	took	a	deep	breath
1618	toward	the	end	of
2529	trying	to	figure	out
1823	turn	of	the	century
2240	turn	out	to	be
6033	turned	out	to	be
1977	turns	out	to	be
2806	two	and	a	half
1595	united	states	and	the
1656	united	states	of	america
1122	until	the	end	of
2742	up	and	down	the
1009	up	in	front	of
1135	up	in	the	air
1137	up	in	the	morning
1050	us	here	at	abc
1498	used	to	be	a
1184	very	much	for	being
1253	very	much	for	joining
1728	vice	president	of	the
1431	want	to	ask	you
2049	want	to	be	a
1290	want	to	do	is
1376	want	to	do	it
1083	want	to	do	that
1404	want	to	go	back
2012	want	to	go	to
1047	want	to	have	a
1577	want	to	know	what
1759	want	to	make	sure
2608	want	to	talk	about
1585	want	to	talk	to
1097	want	you	to	know
1584	wanted	to	be	a
2569	was	a	lot	of
1500	was	a	member	of
1007	was	a	time	when
6624	was	going	to	be
1177	was	going	to	do
1020	was	going	to	get
1190	was	going	to	happen
1066	was	going	to	have
1243	was	going	to	say
3473	was	n't	going	to
1214	was	not	going	to
9702	was	one	of	the
1835	was	one	of	those
1109	was	part	of	a
1745	was	part	of	the
2956	was	supposed	to	be
2503	was	the	first	time
1329	was	the	first	to
1063	was	the	last	time
1498	was	the	one	who
1455	was	the	only	one
1161	way	or	the	other
1027	way	to	do	it
5012	we	are	going	to
1060	we	are	talking	about
1032	we	are	trying	to
2498	we	did	n't	have
1728	we	did	n't	know
1030	we	do	n't	get
8467	we	do	n't	have
7371	we	do	n't	know
1832	we	do	n't	need
4622	we	do	n't	want
1560	we	have	a	lot
1847	we	have	to	be
2129	we	have	to	do
1099	we	have	to	go
1229	we	have	to	take
1409	we	need	to	be
1756	we	need	to	do
1076	we	need	to	get
1155	we	want	to	be
1849	we	were	able	to
2641	we	were	going	to
1075	we	were	talking	about
1224	we	would	like	to
3199	weapons	of	mass	destruction
1412	went	back	to	the
1444	were	a	lot	of
1590	were	going	to	be
1930	were	more	likely	to
3798	what	are	you	doing
2012	what	are	you	going
1271	what	are	you	talking
1210	what	can	i	do
1427	what	did	you	do
1226	what	did	you	think
2796	what	do	you	do
1572	what	do	you	make
4485	what	do	you	mean
1729	what	do	you	say
11313	what	do	you	think
3134	what	do	you	want
1075	what	does	it	mean
1672	what	does	that	mean
1252	what	happened	to	the
1410	what	he	was	doing
1691	what	i	want	to
1065	what	i	was	doing
1803	what	is	going	on
1716	what	it	means	to
1128	what	it	takes	to
1328	what	it	was	like
2208	what	to	do	with
3616	what	was	going	on
1070	what	we	need	to
1259	what	would	you	do
1061	what	you	can	do
1091	what	you	have	to
1367	what	you	want	to
1767	when	he	was	a
1048	when	he	was	in
3454	when	i	was	a
1900	when	i	was	in
2011	when	it	came	to
11180	when	it	comes	to
6817	when	we	come	back
1044	when	you	do	n't
1234	when	you	have	a
2273	when	you	look	at
1756	whether	or	not	the
1240	whether	or	not	they
1087	while	at	the	same
1012	who	are	going	to
1003	who	do	n't	have
1007	who	grew	up	in
1963	why	did	n't	you
1973	why	do	n't	we
6639	why	do	n't	you
2264	why	do	you	think
5717	will	be	able	to
1242	will	continue	to	be
1856	will	have	to	be
1131	with	a	group	of
2991	with	a	lot	of
1202	with	a	sense	of
1735	with	one	of	the
1597	with	regard	to	the
2005	with	respect	to	the
1657	with	salt	and	pepper
2142	with	some	of	the
2742	with	the	exception	of
1475	with	the	fact	that
3808	with	the	help	of
1281	with	the	idea	of
2361	with	the	rest	of
3047	with	the	united	states
1269	within	the	context	of
2012	wo	n't	be	able
1458	wo	n't	have	to
1243	would	be	a	good
2570	would	be	able	to
2079	would	have	been	a
2971	would	have	to	be
2460	would	like	to	see
1118	would	n't	be	able
1282	would	n't	have	been
1383	would	n't	have	to
1713	would	n't	want	to
1426	would	not	have	been
2449	would	you	like	to
2620	year	and	a	half
2399	you	are	going	to
1426	you	ca	n't	be
2255	you	ca	n't	do
1988	you	ca	n't	get
1119	you	ca	n't	go
1258	you	ca	n't	have
1170	you	ca	n't	just
1041	you	ca	n't	see
1334	you	can	do	it
1012	you	can	get	a
1554	you	can	see	the
1310	you	did	n't	have
1304	you	did	n't	know
1340	you	do	n't	even
2254	you	do	n't	get
13322	you	do	n't	have
6382	you	do	n't	know
1940	you	do	n't	like
1314	you	do	n't	mind
3195	you	do	n't	need
1509	you	do	n't	see
2192	you	do	n't	think
7431	you	do	n't	want
1128	you	for	being	with
1344	you	for	joining	us
1035	you	go	to	the
1936	you	going	to	do
4028	you	have	to	be
3140	you	have	to	do
1029	you	have	to	get
1503	you	have	to	go
2179	you	have	to	have
1025	you	have	to	make
1082	you	just	do	n't
1349	you	just	have	to
4024	you	know	what	i
3653	you	look	at	the
1115	you	may	want	to
1403	you	might	want	to
1415	you	need	to	know
1157	you	really	want	to
1745	you	so	much	for
1025	you	think	about	it
2578	you	very	much	for
2821	you	want	me	to
2696	you	want	to	be
2724	you	want	to	do
1407	you	want	to	get
1911	you	want	to	go
1760	you	want	to	know
1006	you	want	to	make
1179	you	want	to	see
1645	you	were	going	to
1388	you	wo	n't	be
